{ "photos": { "page": 1, "pages": 20, "perpage": 50, "total": "1000", 
    "photo": [
      { "id": "28039424287", "owner": "136222874@N08", "secret": "d5dfe4cdf3", "server": "899", "farm": 1, "title": "Storytime at the MSPCA", "ispublic": 1, "isfriend": 0, "isfamily": 0, "url_s": "https:\/\/farm1.staticflickr.com\/899\/28039424287_d5dfe4cdf3_m.jpg", "height_s": "240", "width_s": "180", "url_m": "https:\/\/farm1.staticflickr.com\/899\/28039424287_d5dfe4cdf3.jpg", "height_m": "500", "width_m": "375", "url_l": "https:\/\/farm1.staticflickr.com\/899\/28039424287_d5dfe4cdf3_b.jpg", "height_l": "1024", "width_l": "768" },
      { "id": "28039425027", "owner": "158501664@N02", "secret": "d6833c65b8", "server": "1766", "farm": 2, "title": "LRM_EXPORT_20180619_140609", "ispublic": 1, "isfriend": 0, "isfamily": 0, "url_s": "https:\/\/farm2.staticflickr.com\/1766\/28039425027_d6833c65b8_m.jpg", "height_s": "240", "width_s": "160", "url_m": "https:\/\/farm2.staticflickr.com\/1766\/28039425027_d6833c65b8.jpg", "height_m": "500", "width_m": "333", "url_l": "https:\/\/farm2.staticflickr.com\/1766\/28039425027_d6833c65b8_b.jpg", "height_l": "1024", "width_l": "683" },
      { "id": "28039425167", "owner": "14677265@N05", "secret": "145b4846b9", "server": "1763", "farm": 2, "title": "IMG_0122.jpg", "ispublic": 1, "isfriend": 0, "isfamily": 0, "url_s": "https:\/\/farm2.staticflickr.com\/1763\/28039425167_145b4846b9_m.jpg", "height_s": "240", "width_s": "238", "url_m": "https:\/\/farm2.staticflickr.com\/1763\/28039425167_145b4846b9.jpg", "height_m": "500", "width_m": "496", "url_l": "https:\/\/farm2.staticflickr.com\/1763\/28039425167_145b4846b9_b.jpg", "height_l": "1024", "width_l": "1015" },
      { "id": "28039430857", "owner": "137111513@N08", "secret": "9537993512", "server": "1789", "farm": 2, "title": "cb2b12c0-8928-4daf-b121-2ceebc7d0345", "ispublic": 1, "isfriend": 0, "isfamily": 0, "url_s": "https:\/\/farm2.staticflickr.com\/1789\/28039430857_9537993512_m.jpg", "height_s": "180", "width_s": "240", "url_m": "https:\/\/farm2.staticflickr.com\/1789\/28039430857_9537993512.jpg", "height_m": "375", "width_m": "500", "url_l": "https:\/\/farm2.staticflickr.com\/1789\/28039430857_9537993512_b.jpg", "height_l": "768", "width_l": "1024" },
      { "id": "28039433087", "owner": "144251385@N04", "secret": "1bc49bef9d", "server": "892", "farm": 1, "title": "Music from Great Film Classics", "ispublic": 1, "isfriend": 0, "isfamily": 0, "url_s": "https:\/\/farm1.staticflickr.com\/892\/28039433087_1bc49bef9d_m.jpg", "height_s": "240", "width_s": "240", "url_m": "https:\/\/farm1.staticflickr.com\/892\/28039433087_1bc49bef9d.jpg", "height_m": "500", "width_m": "500", "url_l": "https:\/\/farm1.staticflickr.com\/892\/28039433087_1bc49bef9d_b.jpg", "height_l": "1024", "width_l": "1024" },
      { "id": "28039433127", "owner": "161207578@N08", "secret": "1f3befbb99", "server": "1764", "farm": 2, "title": "Cheap Wifi Mini Camera, PANNOVO HD 1080P Security Camera Nanny Cam", "ispublic": 1, "isfriend": 0, "isfamily": 0, "url_s": "https:\/\/farm2.staticflickr.com\/1764\/28039433127_1f3befbb99_m.jpg", "height_s": "240", "width_s": "240", "url_m": "https:\/\/farm2.staticflickr.com\/1764\/28039433127_1f3befbb99.jpg", "height_m": "500", "width_m": "500" },
      { "id": "28039433227", "owner": "159510798@N03", "secret": "261b24acc2", "server": "1801", "farm": 2, "title": "Anpfiff für einen Traum - Das Wort zum Wort zum Sonntag zum Thema Geduld", "ispublic": 1, "isfriend": 0, "isfamily": 0, "url_s": "https:\/\/farm2.staticflickr.com\/1801\/28039433227_261b24acc2_m.jpg", "height_s": "160", "width_s": "240", "url_m": "https:\/\/farm2.staticflickr.com\/1801\/28039433227_261b24acc2.jpg", "height_m": "333", "width_m": "500" },
      { "id": "28039433287", "owner": "60257816@N07", "secret": "6f989952b2", "server": "1804", "farm": 2, "title": "3x3 Basketball", "ispublic": 1, "isfriend": 0, "isfamily": 0, "url_s": "https:\/\/farm2.staticflickr.com\/1804\/28039433287_6f989952b2_m.jpg", "height_s": "160", "width_s": "240", "url_m": "https:\/\/farm2.staticflickr.com\/1804\/28039433287_6f989952b2.jpg", "height_m": "333", "width_m": "500", "url_l": "https:\/\/farm2.staticflickr.com\/1804\/28039433287_6f989952b2_b.jpg", "height_l": "683", "width_l": "1024" },
      { "id": "28039433417", "owner": "7211785@N06", "secret": "80d5c1e522", "server": "1781", "farm": 2, "title": "20180614 114023 1SL6", "ispublic": 1, "isfriend": 0, "isfamily": 0, "url_s": "https:\/\/farm2.staticflickr.com\/1781\/28039433417_80d5c1e522_m.jpg", "height_s": "160", "width_s": "240", "url_m": "https:\/\/farm2.staticflickr.com\/1781\/28039433417_80d5c1e522.jpg", "height_m": "333", "width_m": "500", "url_l": "https:\/\/farm2.staticflickr.com\/1781\/28039433417_80d5c1e522_b.jpg", "height_l": "683", "width_l": "1024" },
      { "id": "28039437637", "owner": "157446035@N03", "secret": "6acd107d2f", "server": "1747", "farm": 2, "title": "New free stock photo of wave, banner, freedom", "ispublic": 1, "isfriend": 0, "isfamily": 0, "url_s": "https:\/\/farm2.staticflickr.com\/1747\/28039437637_6acd107d2f_m.jpg", "height_s": "160", "width_s": "240", "url_m": "https:\/\/farm2.staticflickr.com\/1747\/28039437637_6acd107d2f.jpg", "height_m": "334", "width_m": "500", "url_l": "https:\/\/farm2.staticflickr.com\/1747\/28039437637_6acd107d2f_b.jpg", "height_l": "627", "width_l": "940" },
      { "id": "28039437747", "owner": "143001750@N05", "secret": "d7df62fc15", "server": "1788", "farm": 2, "title": "Butterfly.", "ispublic": 1, "isfriend": 0, "isfamily": 0, "url_s": "https:\/\/farm2.staticflickr.com\/1788\/28039437747_d7df62fc15_m.jpg", "height_s": "174", "width_s": "240", "url_m": "https:\/\/farm2.staticflickr.com\/1788\/28039437747_d7df62fc15.jpg", "height_m": "363", "width_m": "500", "url_l": "https:\/\/farm2.staticflickr.com\/1788\/28039437747_d7df62fc15_b.jpg", "height_l": "744", "width_l": "1024" },
      { "id": "29035830538", "owner": "156923452@N02", "secret": "92a7233307", "server": "899", "farm": 1, "title": "warning mail", "ispublic": 1, "isfriend": 0, "isfamily": 0, "url_s": "https:\/\/farm1.staticflickr.com\/899\/29035830538_92a7233307_m.jpg", "height_s": "134", "width_s": "240", "url_m": "https:\/\/farm1.staticflickr.com\/899\/29035830538_92a7233307.jpg", "height_m": "224", "width_m": "400" },
      { "id": "29035831268", "owner": "24395473@N07", "secret": "3507aae464", "server": "899", "farm": 1, "title": "North Iceland drive-by", "ispublic": 1, "isfriend": 0, "isfamily": 0, "url_s": "https:\/\/farm1.staticflickr.com\/899\/29035831268_3507aae464_m.jpg", "height_s": "111", "width_s": "240", "url_m": "https:\/\/farm1.staticflickr.com\/899\/29035831268_3507aae464.jpg", "height_m": "232", "width_m": "500", "url_l": "https:\/\/farm1.staticflickr.com\/899\/29035831268_3507aae464_b.jpg", "height_l": "476", "width_l": "1024" },
      { "id": "29035831938", "owner": "147585804@N08", "secret": "2757479de0", "server": "1783", "farm": 2, "title": "Photo", "ispublic": 1, "isfriend": 0, "isfamily": 0, "url_s": "https:\/\/farm2.staticflickr.com\/1783\/29035831938_2757479de0_m.jpg", "height_s": "240", "width_s": "240", "url_m": "https:\/\/farm2.staticflickr.com\/1783\/29035831938_2757479de0.jpg", "height_m": "500", "width_m": "500" },
      { "id": "29035835598", "owner": "151775346@N05", "secret": "72456bbf9b", "server": "1721", "farm": 2, "title": "#PartyRosaLipsx: 36 Likes, 2 Comments - RiaeMx (@riaemx) on Instagram: “@riae_ … … … #instagram #riaeaction #riaesuicide #riae #suicide #suicidegirl…” https:\/\/buff.ly\/2J5NsCD https:\/\/buff.ly\/2JA6GVe https:\/\/buff.ly\/2MpIeDO https:\/\/ift.tt\/2LLVula", "ispublic": 1, "isfriend": 0, "isfamily": 0, "url_s": "https:\/\/farm2.staticflickr.com\/1721\/29035835598_72456bbf9b_m.jpg", "height_s": "159", "width_s": "240", "url_m": "https:\/\/farm2.staticflickr.com\/1721\/29035835598_72456bbf9b.jpg", "height_m": "332", "width_m": "500" },
      { "id": "29035837658", "owner": "99457396@N00", "secret": "1591eee17b", "server": "1825", "farm": 2, "title": "DSCF1116.jpg", "ispublic": 1, "isfriend": 0, "isfamily": 0, "url_s": "https:\/\/farm2.staticflickr.com\/1825\/29035837658_1591eee17b_m.jpg", "height_s": "164", "width_s": "240", "url_m": "https:\/\/farm2.staticflickr.com\/1825\/29035837658_1591eee17b.jpg", "height_m": "342", "width_m": "500", "url_l": "https:\/\/farm2.staticflickr.com\/1825\/29035837658_1591eee17b_b.jpg", "height_l": "700", "width_l": "1024" },
      { "id": "29035838028", "owner": "161295345@N05", "secret": "33a4dccbc2", "server": "1802", "farm": 2, "title": "LRM_EXPORT_20180619_233855", "ispublic": 1, "isfriend": 0, "isfamily": 0, "url_s": "https:\/\/farm2.staticflickr.com\/1802\/29035838028_33a4dccbc2_m.jpg", "height_s": "160", "width_s": "240", "url_m": "https:\/\/farm2.staticflickr.com\/1802\/29035838028_33a4dccbc2.jpg", "height_m": "333", "width_m": "500", "url_l": "https:\/\/farm2.staticflickr.com\/1802\/29035838028_33a4dccbc2_b.jpg", "height_l": "681", "width_l": "1024" },
      { "id": "29035838128", "owner": "9687371@N04", "secret": "d426027bd1", "server": "1827", "farm": 2, "title": "DSC01402.jpg", "ispublic": 1, "isfriend": 0, "isfamily": 0, "url_s": "https:\/\/farm2.staticflickr.com\/1827\/29035838128_d426027bd1_m.jpg", "height_s": "194", "width_s": "240", "url_m": "https:\/\/farm2.staticflickr.com\/1827\/29035838128_d426027bd1.jpg", "height_m": "404", "width_m": "500", "url_l": "https:\/\/farm2.staticflickr.com\/1827\/29035838128_d426027bd1_b.jpg", "height_l": "828", "width_l": "1024" },
      { "id": "29035838278", "owner": "155139113@N08", "secret": "76d727ddcd", "server": "1822", "farm": 2, "title": "img1529421922190", "ispublic": 1, "isfriend": 0, "isfamily": 0, "url_s": "https:\/\/farm2.staticflickr.com\/1822\/29035838278_76d727ddcd_m.jpg", "height_s": "160", "width_s": "240", "url_m": "https:\/\/farm2.staticflickr.com\/1822\/29035838278_76d727ddcd.jpg", "height_m": "333", "width_m": "500", "url_l": "https:\/\/farm2.staticflickr.com\/1822\/29035838278_76d727ddcd_b.jpg", "height_l": "682", "width_l": "1024" },
      { "id": "29035838318", "owner": "156218436@N05", "secret": "403b36942a", "server": "1786", "farm": 2, "title": "20180620_003219", "ispublic": 1, "isfriend": 0, "isfamily": 0, "url_s": "https:\/\/farm2.staticflickr.com\/1786\/29035838318_403b36942a_m.jpg", "height_s": "117", "width_s": "240", "url_m": "https:\/\/farm2.staticflickr.com\/1786\/29035838318_403b36942a.jpg", "height_m": "243", "width_m": "500", "url_l": "https:\/\/farm2.staticflickr.com\/1786\/29035838318_403b36942a_b.jpg", "height_l": "498", "width_l": "1024" },
      { "id": "29035839638", "owner": "40046588@N07", "secret": "2f1a934e98", "server": "1787", "farm": 2, "title": "2018-06-19_01-31-43", "ispublic": 1, "isfriend": 0, "isfamily": 0, "url_s": "https:\/\/farm2.staticflickr.com\/1787\/29035839638_2f1a934e98_m.jpg", "height_s": "135", "width_s": "240", "url_m": "https:\/\/farm2.staticflickr.com\/1787\/29035839638_2f1a934e98.jpg", "height_m": "282", "width_m": "500", "url_l": "https:\/\/farm2.staticflickr.com\/1787\/29035839638_2f1a934e98_b.jpg", "height_l": "578", "width_l": "1024" },
      { "id": "29035840388", "owner": "105847936@N07", "secret": "922c05b7af", "server": "1731", "farm": 2, "title": "Yellow-breasted Chat", "ispublic": 1, "isfriend": 0, "isfamily": 0, "url_s": "https:\/\/farm2.staticflickr.com\/1731\/29035840388_922c05b7af_m.jpg", "height_s": "240", "width_s": "240", "url_m": "https:\/\/farm2.staticflickr.com\/1731\/29035840388_922c05b7af.jpg", "height_m": "500", "width_m": "499", "url_l": "https:\/\/farm2.staticflickr.com\/1731\/29035840388_922c05b7af_b.jpg", "height_l": "654", "width_l": "653" },
      { "id": "41097994230", "owner": "54888983@N04", "secret": "fbf9215d22", "server": "896", "farm": 1, "title": "20180322東京賞櫻行", "ispublic": 1, "isfriend": 0, "isfamily": 0, "url_s": "https:\/\/farm1.staticflickr.com\/896\/41097994230_fbf9215d22_m.jpg", "height_s": "135", "width_s": "240", "url_m": "https:\/\/farm1.staticflickr.com\/896\/41097994230_fbf9215d22.jpg", "height_m": "281", "width_m": "500", "url_l": "https:\/\/farm1.staticflickr.com\/896\/41097994230_fbf9215d22_b.jpg", "height_l": "576", "width_l": "1024" },
      { "id": "41097995940", "owner": "59345016@N05", "secret": "c79e11784d", "server": "1747", "farm": 2, "title": "‘Buffer’ on one of the locomotives on display @lachlanvalleyrailway #lachlanvalleyrailway . . . . . . #igersaustralia #wow_australia2018 #olympusinspired #olympus_au #getolympus #olympusvisionary #cowra #visitcowra #unearthcentralnsw#destinationnsw @desti", "ispublic": 1, "isfriend": 0, "isfamily": 0, "url_s": "https:\/\/farm2.staticflickr.com\/1747\/41097995940_c79e11784d_m.jpg", "height_s": "180", "width_s": "240", "url_m": "https:\/\/farm2.staticflickr.com\/1747\/41097995940_c79e11784d.jpg", "height_m": "375", "width_m": "500" },
      { "id": "41097999670", "owner": "40380632@N02", "secret": "b81529dd16", "server": "896", "farm": 1, "title": "Pensive selfie", "ispublic": 1, "isfriend": 0, "isfamily": 0, "url_s": "https:\/\/farm1.staticflickr.com\/896\/41097999670_b81529dd16_m.jpg", "height_s": "180", "width_s": "240", "url_m": "https:\/\/farm1.staticflickr.com\/896\/41097999670_b81529dd16.jpg", "height_m": "375", "width_m": "500", "url_l": "https:\/\/farm1.staticflickr.com\/896\/41097999670_b81529dd16_b.jpg", "height_l": "768", "width_l": "1024" },
      { "id": "41098000700", "owner": "158165196@N05", "secret": "4bcdd6770a", "server": "1767", "farm": 2, "title": "IMG_20180609_214457", "ispublic": 1, "isfriend": 0, "isfamily": 0, "url_s": "https:\/\/farm2.staticflickr.com\/1767\/41098000700_4bcdd6770a_m.jpg", "height_s": "180", "width_s": "240", "url_m": "https:\/\/farm2.staticflickr.com\/1767\/41098000700_4bcdd6770a.jpg", "height_m": "375", "width_m": "500", "url_l": "https:\/\/farm2.staticflickr.com\/1767\/41098000700_4bcdd6770a_b.jpg", "height_l": "768", "width_l": "1024" },
      { "id": "41098000830", "owner": "141015139@N06", "secret": "5d714e896b", "server": "1784", "farm": 2, "title": "ВФМС 2017", "ispublic": 1, "isfriend": 0, "isfamily": 0, "url_s": "https:\/\/farm2.staticflickr.com\/1784\/41098000830_5d714e896b_m.jpg", "height_s": "240", "width_s": "180", "url_m": "https:\/\/farm2.staticflickr.com\/1784\/41098000830_5d714e896b.jpg", "height_m": "500", "width_m": "375", "url_l": "https:\/\/farm2.staticflickr.com\/1784\/41098000830_5d714e896b_b.jpg", "height_l": "1024", "width_l": "768" },
      { "id": "41098001460", "owner": "149537304@N03", "secret": "f836d24ee2", "server": "1783", "farm": 2, "title": "Azhagiya tamilmagan (HD snap's)", "ispublic": 1, "isfriend": 0, "isfamily": 0, "url_s": "https:\/\/farm2.staticflickr.com\/1783\/41098001460_f836d24ee2_m.jpg", "height_s": 91, "width_s": "240", "url_m": "https:\/\/farm2.staticflickr.com\/1783\/41098001460_f836d24ee2.jpg", "height_m": "190", "width_m": "500", "url_l": "https:\/\/farm2.staticflickr.com\/1783\/41098001460_f836d24ee2_b.jpg", "height_l": "389", "width_l": "1024" },
      { "id": "41098003740", "owner": "99447257@N05", "secret": "289e2c9dba", "server": "1827", "farm": 2, "title": "A hot day at #eakinsoval  #Philadelphia             #statues", "ispublic": 1, "isfriend": 0, "isfamily": 0, "url_s": "https:\/\/farm2.staticflickr.com\/1827\/41098003740_289e2c9dba_m.jpg", "height_s": "180", "width_s": "240", "url_m": "https:\/\/farm2.staticflickr.com\/1827\/41098003740_289e2c9dba.jpg", "height_m": "375", "width_m": "500", "url_l": "https:\/\/farm2.staticflickr.com\/1827\/41098003740_289e2c9dba_b.jpg", "height_l": "768", "width_l": "1024" },
      { "id": "41098007320", "owner": "14056438@N08", "secret": "cc46be8c84", "server": "1829", "farm": 2, "title": "P1360218", "ispublic": 1, "isfriend": 0, "isfamily": 0, "url_s": "https:\/\/farm2.staticflickr.com\/1829\/41098007320_cc46be8c84_m.jpg", "height_s": "135", "width_s": "240", "url_m": "https:\/\/farm2.staticflickr.com\/1829\/41098007320_cc46be8c84.jpg", "height_m": "281", "width_m": "500", "url_l": "https:\/\/farm2.staticflickr.com\/1829\/41098007320_cc46be8c84_b.jpg", "height_l": "576", "width_l": "1024" },
      { "id": "41098007470", "owner": "158966401@N05", "secret": "922c05b7af", "server": "900", "farm": 1, "title": "mummys_ghost_1944_lc_07", "ispublic": 1, "isfriend": 0, "isfamily": 0, "url_s": "https:\/\/farm1.staticflickr.com\/900\/41098007470_922c05b7af_m.jpg", "height_s": "189", "width_s": "240", "url_m": "https:\/\/farm1.staticflickr.com\/900\/41098007470_922c05b7af.jpg", "height_m": "393", "width_m": "500", "url_l": "https:\/\/farm1.staticflickr.com\/900\/41098007470_922c05b7af_b.jpg", "height_l": "805", "width_l": "1024" },
      { "id": "42007401685", "owner": "46275772@N08", "secret": "7436ccf7e8", "server": "1767", "farm": 2, "title": "looking in a different way", "ispublic": 1, "isfriend": 0, "isfamily": 0, "url_s": "https:\/\/farm2.staticflickr.com\/1767\/42007401685_7436ccf7e8_m.jpg", "height_s": "240", "width_s": "214", "url_m": "https:\/\/farm2.staticflickr.com\/1767\/42007401685_7436ccf7e8.jpg", "height_m": "500", "width_m": "445", "url_l": "https:\/\/farm2.staticflickr.com\/1767\/42007401685_7436ccf7e8_b.jpg", "height_l": "1024", "width_l": "912" },
      { "id": "42007403635", "owner": "153471472@N02", "secret": "80de7fed32", "server": "1745", "farm": 2, "title": "NEW", "ispublic": 1, "isfriend": 0, "isfamily": 0, "url_s": "https:\/\/farm2.staticflickr.com\/1745\/42007403635_80de7fed32_m.jpg", "height_s": "160", "width_s": "240", "url_m": "https:\/\/farm2.staticflickr.com\/1745\/42007403635_80de7fed32.jpg", "height_m": "333", "width_m": "500", "url_l": "https:\/\/farm2.staticflickr.com\/1745\/42007403635_80de7fed32_b.jpg", "height_l": "683", "width_l": "1024" },
      { "id": "42007404345", "owner": "23137037@N05", "secret": "bdeba3dcf4", "server": "1763", "farm": 2, "title": "Two Piña colada’s one for each hand! #happyhour #vacation #cabo #garthbrooks", "ispublic": 1, "isfriend": 0, "isfamily": 0, "url_s": "https:\/\/farm2.staticflickr.com\/1763\/42007404345_bdeba3dcf4_m.jpg", "height_s": "240", "width_s": "240", "url_m": "https:\/\/farm2.staticflickr.com\/1763\/42007404345_bdeba3dcf4.jpg", "height_m": "500", "width_m": "500", "url_l": "https:\/\/farm2.staticflickr.com\/1763\/42007404345_bdeba3dcf4_b.jpg", "height_l": "720", "width_l": "720" },
      { "id": "42007404375", "owner": "38862801@N04", "secret": "912288556f", "server": "1768", "farm": 2, "title": "3 Bandeiras", "ispublic": 1, "isfriend": 0, "isfamily": 0, "url_s": "https:\/\/farm2.staticflickr.com\/1768\/42007404375_912288556f_m.jpg", "height_s": "160", "width_s": "240", "url_m": "https:\/\/farm2.staticflickr.com\/1768\/42007404375_912288556f.jpg", "height_m": "333", "width_m": "500", "url_l": "https:\/\/farm2.staticflickr.com\/1768\/42007404375_912288556f_b.jpg", "height_l": "682", "width_l": "1024" },
      { "id": "42007407275", "owner": "151276467@N08", "secret": "776a90075c", "server": "1810", "farm": 2, "title": "Lovely day", "ispublic": 1, "isfriend": 0, "isfamily": 0, "url_s": "https:\/\/farm2.staticflickr.com\/1810\/42007407275_776a90075c_m.jpg", "height_s": "240", "width_s": "135", "url_m": "https:\/\/farm2.staticflickr.com\/1810\/42007407275_776a90075c.jpg", "height_m": "500", "width_m": "281", "url_l": "https:\/\/farm2.staticflickr.com\/1810\/42007407275_776a90075c_b.jpg", "height_l": "1024", "width_l": "576" },
      { "id": "42189911914", "owner": "146812745@N05", "secret": "24be938b0d", "server": "1808", "farm": 2, "title": "Parish_shcool_Graduation_2018 -166_wm.jpg", "ispublic": 1, "isfriend": 0, "isfamily": 0, "url_s": "https:\/\/farm2.staticflickr.com\/1808\/42189911914_24be938b0d_m.jpg", "height_s": "182", "width_s": "240", "url_m": "https:\/\/farm2.staticflickr.com\/1808\/42189911914_24be938b0d.jpg", "height_m": "379", "width_m": "500", "url_l": "https:\/\/farm2.staticflickr.com\/1808\/42189911914_24be938b0d_b.jpg", "height_l": "776", "width_l": "1024" },
      { "id": "42189913774", "owner": "25123821@N05", "secret": "665814f319", "server": "1763", "farm": 2, "title": "2018-06-19_06-36-46", "ispublic": 1, "isfriend": 0, "isfamily": 0, "url_s": "https:\/\/farm2.staticflickr.com\/1763\/42189913774_665814f319_m.jpg", "height_s": "160", "width_s": "240", "url_m": "https:\/\/farm2.staticflickr.com\/1763\/42189913774_665814f319.jpg", "height_m": "333", "width_m": "500", "url_l": "https:\/\/farm2.staticflickr.com\/1763\/42189913774_665814f319_b.jpg", "height_l": "683", "width_l": "1024" },
      { "id": "42189919874", "owner": "140971311@N03", "secret": "f9cf23960e", "server": "1770", "farm": 2, "title": "🐚🐚", "ispublic": 1, "isfriend": 0, "isfamily": 0, "url_s": "https:\/\/farm2.staticflickr.com\/1770\/42189919874_f9cf23960e_m.jpg", "height_s": "180", "width_s": "240", "url_m": "https:\/\/farm2.staticflickr.com\/1770\/42189919874_f9cf23960e.jpg", "height_m": "375", "width_m": "500", "url_l": "https:\/\/farm2.staticflickr.com\/1770\/42189919874_f9cf23960e_b.jpg", "height_l": "768", "width_l": "1024" },
      { "id": "42189924344", "owner": "59917464@N08", "secret": "22a432b35e", "server": "1781", "farm": 2, "title": "DSC_9311", "ispublic": 1, "isfriend": 0, "isfamily": 0, "url_s": "https:\/\/farm2.staticflickr.com\/1781\/42189924344_22a432b35e_m.jpg", "height_s": "180", "width_s": "240", "url_m": "https:\/\/farm2.staticflickr.com\/1781\/42189924344_22a432b35e.jpg", "height_m": "375", "width_m": "500", "url_l": "https:\/\/farm2.staticflickr.com\/1781\/42189924344_22a432b35e_b.jpg", "height_l": "768", "width_l": "1024" },
      { "id": "42908120611", "owner": "153867836@N08", "secret": "722786cc44", "server": "1790", "farm": 2, "title": "", "ispublic": 1, "isfriend": 0, "isfamily": 0, "url_s": "https:\/\/farm2.staticflickr.com\/1790\/42908120611_722786cc44_m.jpg", "height_s": "160", "width_s": "240", "url_m": "https:\/\/farm2.staticflickr.com\/1790\/42908120611_722786cc44.jpg", "height_m": "333", "width_m": "500", "url_l": "https:\/\/farm2.staticflickr.com\/1790\/42908120611_722786cc44_b.jpg", "height_l": "683", "width_l": "1024" },
    ] }, "stat": "ok" }